Viral CAI Analysis
…
General Comparisons of the Viruses

virus_tidy  %>% group_by(virus) %>% 
                summarise_at(.vars = vars(CAI, percent_opt, GC), .funs = mean) %>% 
                arrange(CAI)

## # A tibble: 30 x 4
##    virus        CAI percent_opt    GC
##    <chr>      <dbl>       <dbl> <dbl>
##  1 HSV1       0.780        30.9 0.679
##  2 CMV        0.781        32.9 0.572
##  3 chickenpox 0.783        36.3 0.465
##  4 rubella    0.797        29.8 0.697
##  5 HepC       0.815        32.4 0.594
##  6 HepB       0.819        37.4 0.500
##  7 CHIKV      0.823        35.9 0.514
##  8 cowpox     0.824        39.5 0.342
##  9 rotavirus1 0.824        41.6 0.329
## 10 vaccina    0.825        39.3 0.346
## # ... with 20 more rows
…
